{
  "latestVersion": "1.0.0.1",
  "latestVersionCode": "1",
  "url": "https://delivery.cesappstore.com/android/com.cityelectricsupply.expences/1.0.0.1/app-debug.apk",
  "releaseNotes": [
    "- First evolution",
    "- Second evolution",
    "- Bug fixes"
  ]
}
